slide_id,block_id,patient_id,species,marker,sample_type,tumor_type,tissue_type,timepoint_code,protocol_number,protocol_name,study_id,diagnosis
SL0004J9E,SB0004J7G,p5,Human,"CD163,CD68",Lymph node,LN metastasis,Lymph node,802,9999214,AP_FOXP3_236A-E7,study1,
SL0000QGW,SB0000QFV,1001,human,"CD8A,CD3E",FFPET,CRC,Liver,702,9999102,AP_FOXP3_236A-E7,BP29436,Lung adenocarcinoma
SL0000QI2,SB0000QFX,1003,human,CD4,FFPET,CRC,Soft tissue,703,999944,AP_CD8 SP239_Ki-67 30-9,BP29437,CRC
SL0000TRU,SB0000QFW,1003,human,"CASP3,CA9,MKI67",FFPET,CRC,Soft tissue,705,9999213,AP_CD8 SP239_Ki-67 30-9,BP29439,
SL0000QHH,SB0000TRO,1005,human,CD4,FFPET,PaC,Brest,709,999988,AP_CD8A_MKI67_SP239_30-9,BP29443,
SL00006M7,SB00006D9,1022,human,CD4,FFPET,BC,Liver,710,9999216,AP_CD8A_MKI67_SP239_30,BP29444,