slide_id,block_id,patient_id,species,marker,sample_type,tumor_type,tissue_type,timepoint_code,protocol_number,protocol_name,study_id,diagnosis
SL0002OGN,SV00004X7,2005,human,"Ki67,CD8",Lymph,metastasis,LN metastasis,0,9999101,AP_FOXP3_236A-E7,BP28920,CRC
SL000007K,SV00004X2,2005,human,"Ki67,CD8",FFPET,Non tumor,Colon,77,9999101,AP_FOXP3_236A-E7,BP28920,CRC
PLD1P481_VT227292_Panel1_5Plex,SV00004X2,2005,human,"Ki67,CD8",FFPET,Non tumor,Colon,77,9999101,AP_FOXP3_236A-E7,BP28920,CRC
CMU-1,SV00004X1,2005,human,"Ki67,CD8",FFPET,Non tumor,Colon,0,9999101,AP_FOXP3_236A-E7,BP28920,CRC
SL0002OGT,SV00004X2,2005,human,"Ki67,CD8",FFPET,Non tumor,Colon,77,9999101,AP_FOXP3_236A-E7,BP28920,CRC
SL0002OGS,SV00004X3,2005,human,"Ki67,CD8",FFPET,Non tumor,Colon,0,9999101,AP_FOXP3_236A-E7,BP28920,CRC
SL0004J9D,SV00004X81,2005,human,"Ki67,CD8",FFPET,Non tumor,Colon,44,9999101,AP_FOXP3_236A-E7,BP28920,CRC
SL0002OGM,SV00004X82,2005,human,"Ki67,CD8",FFPET,Non tumor,Colon,44,9999101,AP_FOXP3_236A-E7,BP28920,CRC
