slide_id,block_id,patient_id,species,marker,sample_type,tumor_type,tissue_type,timepoint_code,protocol_number,protocol_name,study_id,diagnosis,collection_type
SL0000QGW,SB0000QFX,1001,human,"CD8A,CD3E",FFPET,CRC,Liver,701,999988,AP_CD8 SP239_Ki-67 30-9,BP29436,Lung adenocarcinoma,needle biopsy
SL0000QI2,SB0000QFV,1003,human,CD4,FFPET,CRC,Soft tissue,704,999988,AP_CD8 SP239_Ki-67 30-9,BP29437,CRC,needle biopsy
SL0002X5W,SB0002X5R,1003,human,"MKI67,CD8A",FFPET,RCC,Liver,571,999988,AP_CD8A_MKI67_SP239_30-9,BP29438,RCC,needle biopsy