slide_id,block_id,patient_id,species,marker,sample_type,tumor_type,tissue_type,timepoint_code,protocol_number,protocol_name,study_id,diagnosis
SL00006MM,SV00004X0updated,9000updated,human,"Ki67,CD8",FFPET,Not Specified,Not specified,501,9999101,AP_FOXP3_236A-E7,BP28920,
SL0000DX0,SV00004X0updated,4000updated,human,"Ki67,CD8",FFPET,Not Specified,Not specified,501,999944,AP_CD8A_CD3E_SP239_2GV6,BP28920,
SL0000DXF,SV00004X2updated,4000updated,human,"Ki67,CD8",FFPET,Not Specified,Not specified,501,999944,AP_CD8A_CD3E_SP239_2GV6,BP28920,
SL0000DXU,SV00004X1updated,2005updated,human,"Ki67,CD8",FFPET,Not Specified,Not specified,501,99991012,AP_FOXP3_236A-E7updated,BP28920,
SL0000DY9,SV00004X1updated,2005updated,human,"Ki67,CD8",FFPET,Not Specified,Not specified,501,999944,AP_CD8A_CD3E_SP239_2GV6,BP28920,